name,title,group,value
Vitamin A,Vitamin A,vitamin a,0.9
Vitamin C,Vitamin C,vitamin c,90
Vitamin D,Vitamin D,vitamin d,0.02
Vitamin E,Vitamin E,vitamin e,15
Vitamin K,Vitamin K,vitamin k,0.12
Vitamin B1,Vitamin B1,vitamin b1,1.2
Vitamin B2,Vitamin B2,vitamin b2,1.3
Vitamin B3,Vitamin B3,vitamin b3,16
Vitamin B6,Vitamin B6,vitamin b6,1.7
Vitamin B9,Vitamin B9,vitamin b9,0.4
Vitamin B12,Vitamin B12,vitamin b12,0.0024
Vitamin B5,Vitamin B5,vitamin b5,5
Biotin,Biotin,biotin,0.03
